%YAML 1.1
%TAG !u! tag:unity3d.com,2011:
--- !u!1045 &1
EditorBuildSettings:
  m_ObjectHideFlags: 0
  serializedVersion: 2
  m_Scenes:
  - enabled: 1
    path: Assets/Scenes/_preload.unity
    guid: 0ba822c371e50f84eb6c2d1e09156cea
  - enabled: 1
    path: Assets/Scenes/Menu.unity
    guid: c1cfee0fcf86c484483d3ae7c1865873
  - enabled: 1
    path: Assets/Scenes/GamePlay.unity
    guid: 2cda990e2423bbf4892e6590ba056729
  m_configObjects: {}
